Growth Opportunities for Budweiser
…
Analysis Question # 4 – Not complete – barplot(bbcomplete\(IBU, State = bbcomplete\)State) ## !!Need to barplot this

bbcomplete %>% group_by(State) %>% summarize(medianABV=median(ABV), medianIBU=median(IBU))

## `summarise()` ungrouping output (override with `.groups` argument)

## # A tibble: 50 x 3
##    State medianABV medianIBU
##    <chr>     <dbl>     <dbl>
##  1 AK        0.057      46  
##  2 AL        0.06       43  
##  3 AR        0.04       39  
##  4 AZ        0.055      20  
##  5 CA        0.058      42  
##  6 CO        0.065      40  
##  7 CT        0.061      29  
##  8 DC        0.059      47.5
##  9 DE        0.055      52  
## 10 FL        0.062      55  
## # ... with 40 more rows
…
